[
{
  "model": "delivery.delivery",
  "pk": 1,
  "fields": {
    "feeding": 1,
    "status": 4,
    "delivery_date": "2017-01-17"
  }
},
{
  "model": "delivery.delivery",
  "pk": 2,
  "fields": {
    "feeding": 1,
    "status": 4,
    "delivery_date": "2017-02-06"
  }
},
{
  "model": "delivery.delivery",
  "pk": 3,
  "fields": {
    "feeding": 3,
    "status": 4,
    "delivery_date": "2017-02-20"
  }
},
{
  "model": "delivery.delivery",
  "pk": 4,
  "fields": {
    "feeding": 4,
    "status": 4,
    "delivery_date": "2017-03-09"
  }
}
]
